testbench.vcd
$date
	Wed Nov 20 00:23:41 2024
$end
$version
	Icarus Verilog
$end
$timescale
	1ps
$end
$scope module testbench $end
$var wire 32 ! writedata [31:0] $end
$var wire 32 " pcn [31:0] $end
$var wire 32 # pc [31:0] $end
$var wire 1 $ memwrite $end
$var wire 32 % instrW [31:0] $end
$var wire 32 & instrM [31:0] $end
$var wire 32 ' instrF [31:0] $end
$var wire 32 ( instrE [31:0] $end
$var wire 32 ) instrD [31:0] $end
$var wire 32 * dataadr [31:0] $end
$var wire 1 + ZeroM $end
$var wire 1 , ZeroE $end
$var wire 5 - WriteRegE [4:0] $end
$var wire 32 . WriteDataE [31:0] $end
$var wire 32 / SrcBE [31:0] $end
$var wire 32 0 SrcAE [31:0] $end
$var wire 32 1 SignImmE [31:0] $end
$var wire 1 2 RegWriteE $end
$var wire 32 3 RD2E [31:0] $end
$var wire 32 4 RD2 [31:0] $end
$var wire 32 5 RD1E [31:0] $end
$var wire 32 6 RD1 [31:0] $end
$var wire 32 7 PCBranchM [31:0] $end
$var wire 32 8 PCBranchE [31:0] $end
$var wire 1 9 MemtoRegE $end
$var wire 1 : MemWriteE $end
$var wire 2 ; ForwardBE [1:0] $end
$var wire 2 < ForwardAE [1:0] $end
$var wire 1 = BranchM $end
$var wire 1 > BranchE $end
$var wire 1 ? ALUSrcE $end
$var wire 32 @ ALUOutE [31:0] $end
$var reg 1 A clk $end
$var reg 1 B reset $end
$scope module dut $end
$var wire 1 A clk $end
$var wire 1 B reset $end
$var wire 32 C writedata [31:0] $end
$var wire 32 D resultW [31:0] $end
$var wire 32 E readdata [31:0] $end
$var wire 32 F pcn [31:0] $end
$var wire 32 G pc [31:0] $end
$var wire 1 $ memwrite $end
$var wire 32 H instrW [31:0] $end
$var wire 32 I instrOut [31:0] $end
$var wire 32 J instrM [31:0] $end
$var wire 32 K instrF [31:0] $end
$var wire 32 L instrE [31:0] $end
$var wire 32 M instrD [31:0] $end
$var wire 32 N aluout [31:0] $end
$var wire 1 + ZeroM $end
$var wire 1 , ZeroE $end
$var wire 5 O WriteRegE [4:0] $end
$var wire 32 P WriteDataE [31:0] $end
$var wire 32 Q SrcBE [31:0] $end
$var wire 32 R SrcAE [31:0] $end
$var wire 32 S SignImmE [31:0] $end
$var wire 1 2 RegWriteE $end
$var wire 32 T RD2E [31:0] $end
$var wire 32 U RD2 [31:0] $end
$var wire 32 V RD1E [31:0] $end
$var wire 32 W RD1 [31:0] $end
$var wire 32 X PCBranchM [31:0] $end
$var wire 32 Y PCBranchE [31:0] $end
$var wire 1 9 MemtoRegE $end
$var wire 1 : MemWriteE $end
$var wire 2 Z ForwardBE [1:0] $end
$var wire 2 [ ForwardAE [1:0] $end
$var wire 1 = BranchM $end
$var wire 1 > BranchE $end
$var wire 1 ? ALUSrcE $end
$var wire 32 \ ALUOutE [31:0] $end
$scope module dmem $end
$var wire 1 A clk $end
$var wire 32 ] rd [31:0] $end
$var wire 1 $ we $end
$var wire 32 ^ wd [31:0] $end
$var wire 32 _ a [31:0] $end
$upscope $end
$scope module imem $end
$var wire 6 ` addr [5:0] $end
$var reg 32 a instr [31:0] $end
$upscope $end
$scope module mips $end
$var wire 32 b ReadDataM [31:0] $end
$var wire 1 A clk $end
$var wire 32 c instrF [31:0] $end
$var wire 32 d instrOut [31:0] $end
$var wire 1 B reset $end
$var wire 32 e pcn [31:0] $end
$var wire 32 f pc [31:0] $end
$var wire 32 g instrW [31:0] $end
$var wire 32 h instrM [31:0] $end
$var wire 32 i instrE [31:0] $end
$var wire 32 j instrD [31:0] $end
$var wire 1 + ZeroM $end
$var wire 1 , ZeroE $end
$var wire 5 k WriteRegE [4:0] $end
$var wire 32 l WriteDataM [31:0] $end
$var wire 32 m WriteDataE [31:0] $end
$var wire 32 n SrcBE [31:0] $end
$var wire 32 o SrcAE [31:0] $end
$var wire 32 p SignImmE [31:0] $end
$var wire 1 2 RegWriteE $end
$var wire 1 q RegWriteD $end
$var wire 1 r RegDstD $end
$var wire 32 s RD2E [31:0] $end
$var wire 32 t RD2 [31:0] $end
$var wire 32 u RD1E [31:0] $end
$var wire 32 v RD1 [31:0] $end
$var wire 32 w PCBranchM [31:0] $end
$var wire 32 x PCBranchE [31:0] $end
$var wire 1 9 MemtoRegE $end
$var wire 1 $ MemWriteM $end
$var wire 1 : MemWriteE $end
$var wire 1 y MemWriteD $end
$var wire 1 z MemToRegD $end
$var wire 1 { Jump $end
$var wire 2 | ForwardBE [1:0] $end
$var wire 2 } ForwardAE [1:0] $end
$var wire 1 = BranchM $end
$var wire 1 > BranchE $end
$var wire 1 ~ BranchD $end
$var wire 1 ? ALUSrcE $end
$var wire 1 !" ALUSrcD $end
$var wire 32 "" ALUOutM [31:0] $end
$var wire 32 #" ALUOutE [31:0] $end
$var wire 3 $" ALUControlD [2:0] $end
$var reg 32 %" resultW [31:0] $end
$scope module c $end
$var wire 6 &" funct [5:0] $end
$var wire 6 '" op [5:0] $end
$var wire 1 q regwrite $end
$var wire 1 r regdst $end
$var wire 1 y memwrite $end
$var wire 1 z memtoreg $end
$var wire 1 { jump $end
$var wire 1 ~ branch $end
$var wire 1 !" alusrc $end
$var wire 2 (" aluop [1:0] $end
$var wire 3 )" alucontrol [2:0] $end
$scope module ad $end
$var wire 6 *" funct [5:0] $end
$var wire 2 +" aluop [1:0] $end
$var reg 3 ," alucontrol [2:0] $end
$upscope $end
$scope module md $end
$var wire 6 -" op [5:0] $end
$var wire 1 q regwrite $end
$var wire 1 r regdst $end
$var wire 1 y memwrite $end
$var wire 1 z memtoreg $end
$var wire 1 { jump $end
$var wire 1 ~ branch $end
$var wire 1 !" alusrc $end
$var wire 2 ." aluop [1:0] $end
$var reg 9 /" controls [8:0] $end
$upscope $end
$upscope $end
$scope module dp $end
$var wire 3 0" ALUControlD [2:0] $end
$var wire 1 !" ALUSrcD $end
$var wire 1 ~ BranchD $end
$var wire 1 { Jump $end
$var wire 1 y MemWriteD $end
$var wire 1 z MemtoRegD $end
$var wire 1 1" PCSrcM $end
$var wire 32 2" ReadDataM [31:0] $end
$var wire 1 r RegDstD $end
$var wire 1 q RegWriteD $end
$var wire 1 A clk $end
$var wire 16 3" immD [15:0] $end
$var wire 32 4" instrF [31:0] $end
$var wire 5 5" rdD [4:0] $end
$var wire 1 B reset $end
$var wire 5 6" rsD [4:0] $end
$var wire 5 7" rtD [4:0] $end
$var wire 32 8" shiftedSignImmD [31:0] $end
$var wire 32 9" pcjump [31:0] $end
$var wire 32 :" mid [31:0] $end
$var wire 32 ;" instrW [31:0] $end
$var wire 32 <" instrM [31:0] $end
$var wire 32 =" instrE [31:0] $end
$var wire 32 >" instrD [31:0] $end
$var wire 1 + ZeroM $end
$var wire 1 , ZeroE $end
$var wire 5 ?" WriteRegW [4:0] $end
$var wire 5 @" WriteRegM [4:0] $end
$var wire 5 A" WriteRegE [4:0] $end
$var wire 32 B" WriteDataM [31:0] $end
$var wire 32 C" WriteDataE [31:0] $end
$var wire 1 D" StallF $end
$var wire 1 E" StallD $end
$var wire 32 F" SrcBE [31:0] $end
$var wire 32 G" SrcAE [31:0] $end
$var wire 32 H" SignImmE [31:0] $end
$var wire 32 I" SignImmD [31:0] $end
$var wire 5 J" RtE [4:0] $end
$var wire 5 K" RsE [4:0] $end
$var wire 32 L" ResultW [31:0] $end
$var wire 1 M" RegWriteW $end
$var wire 1 N" RegWriteM $end
$var wire 1 2 RegWriteE $end
$var wire 1 O" RegDstE $end
$var wire 32 P" ReadDataW [31:0] $end
$var wire 5 Q" RdE [4:0] $end
$var wire 32 R" RD2E [31:0] $end
$var wire 32 S" RD2 [31:0] $end
$var wire 32 T" RD1E [31:0] $end
$var wire 32 U" RD1 [31:0] $end
$var wire 32 V" PCPlus4F [31:0] $end
$var wire 32 W" PCPlus4E [31:0] $end
$var wire 32 X" PCPlus4D [31:0] $end
$var wire 32 Y" PCN [31:0] $end
$var wire 32 Z" PCF [31:0] $end
$var wire 32 [" PCBranchM [31:0] $end
$var wire 32 \" PCBranchE [31:0] $end
$var wire 1 ]" MemtoRegW $end
$var wire 1 ^" MemtoRegM $end
$var wire 1 9 MemtoRegE $end
$var wire 1 $ MemWriteM $end
$var wire 1 : MemWriteE $end
$var wire 2 _" ForwardBE [1:0] $end
$var wire 2 `" ForwardAE [1:0] $end
$var wire 1 a" FlushM $end
$var wire 1 b" FlushE $end
$var wire 1 c" FlushD $end
$var wire 1 = BranchM $end
$var wire 1 > BranchE $end
$var wire 1 ? ALUSrcE $end
$var wire 32 d" ALUOutW [31:0] $end
$var wire 32 e" ALUOutM [31:0] $end
$var wire 32 f" ALUOutE [31:0] $end
$var wire 3 g" ALUControlE [2:0] $end
$scope module adder1 $end
$var wire 32 h" b [31:0] $end
$var wire 32 i" y [31:0] $end
$var wire 32 j" a [31:0] $end
$upscope $end
$scope module adder2 $end
$var wire 32 k" y [31:0] $end
$var wire 32 l" b [31:0] $end
$var wire 32 m" a [31:0] $end
$upscope $end
$scope module alu $end
$var wire 1 , zero $end
$var wire 32 n" b [31:0] $end
$var wire 3 o" alucont [2:0] $end
$var wire 32 p" a [31:0] $end
$var reg 32 q" result [31:0] $end
$upscope $end
$scope module alusrca_mux $end
$var wire 32 r" d3 [31:0] $end
$var wire 32 s" y [31:0] $end
$var wire 2 t" s [1:0] $end
$var wire 32 u" d2 [31:0] $end
$var wire 32 v" d1 [31:0] $end
$var wire 32 w" d0 [31:0] $end
$var parameter 32 x" WIDTH $end
$upscope $end
$scope module alusrcb_mux1 $end
$var wire 32 y" d3 [31:0] $end
$var wire 32 z" y [31:0] $end
$var wire 2 {" s [1:0] $end
$var wire 32 |" d2 [31:0] $end
$var wire 32 }" d1 [31:0] $end
$var wire 32 ~" d0 [31:0] $end
$var parameter 32 !# WIDTH $end
$upscope $end
$scope module alusrcb_mux2 $end
$var wire 32 "# d0 [31:0] $end
$var wire 32 ## y [31:0] $end
$var wire 1 ? s $end
$var wire 32 $# d1 [31:0] $end
$var parameter 32 %# WIDTH $end
$upscope $end
$scope module hu $end
$var wire 1 c" FlushD $end
$var wire 1 b" FlushE $end
$var wire 1 a" FlushM $end
$var wire 1 { Jump $end
$var wire 1 1" PCSrcM $end
$var wire 1 E" StallD $end
$var wire 1 D" StallF $end
$var wire 1 &# lwstall $end
$var wire 5 '# rsD [4:0] $end
$var wire 5 (# rtD [4:0] $end
$var wire 5 )# rtE [4:0] $end
$var wire 5 *# rsE [4:0] $end
$var wire 5 +# WriteRegW [4:0] $end
$var wire 5 ,# WriteRegM [4:0] $end
$var wire 1 M" RegWriteW $end
$var wire 1 N" RegWriteM $end
$var wire 1 9 MemToRegE $end
$var reg 2 -# ForwardAE [1:0] $end
$var reg 2 .# ForwardBE [1:0] $end
$upscope $end
$scope module pc_mux $end
$var wire 32 /# d0 [31:0] $end
$var wire 1 1" s $end
$var wire 32 0# y [31:0] $end
$var wire 32 1# d1 [31:0] $end
$var parameter 32 2# WIDTH $end
$upscope $end
$scope module pc_mux2 $end
$var wire 32 3# d0 [31:0] $end
$var wire 32 4# d1 [31:0] $end
$var wire 1 { s $end
$var wire 32 5# y [31:0] $end
$var parameter 32 6# WIDTH $end
$upscope $end
$scope module pipeD_E $end
$var wire 3 7# ALUControlD [2:0] $end
$var wire 1 !" ALUSrcD $end
$var wire 1 ~ BranchD $end
$var wire 1 y MemWriteD $end
$var wire 1 z MemtoRegD $end
$var wire 5 8# RdD [4:0] $end
$var wire 1 r RegDstD $end
$var wire 1 q RegWriteD $end
$var wire 5 9# RsD [4:0] $end
$var wire 5 :# RtD [4:0] $end
$var wire 1 b" clear $end
$var wire 1 A clk $end
$var wire 1 B reset $end
$var wire 32 ;# instrD [31:0] $end
$var wire 32 <# SignImmD [31:0] $end
$var wire 32 =# RD2 [31:0] $end
$var wire 32 ># RD1 [31:0] $end
$var wire 32 ?# PCPlus4D [31:0] $end
$var reg 3 @# ALUControlE [2:0] $end
$var reg 1 ? ALUSrcE $end
$var reg 1 > BranchE $end
$var reg 1 : MemWriteE $end
$var reg 1 9 MemtoRegE $end
$var reg 32 A# PCPlus4E [31:0] $end
$var reg 32 B# RD1E [31:0] $end
$var reg 32 C# RD2E [31:0] $end
$var reg 5 D# RdE [4:0] $end
$var reg 1 O" RegDstE $end
$var reg 1 2 RegWriteE $end
$var reg 5 E# RsE [4:0] $end
$var reg 5 F# RtE [4:0] $end
$var reg 32 G# SignImmE [31:0] $end
$var reg 32 H# instrE [31:0] $end
$upscope $end
$scope module pipeE_M $end
$var wire 32 I# ALUOutE [31:0] $end
$var wire 1 > BranchE $end
$var wire 1 : MemWriteE $end
$var wire 1 9 MemtoRegE $end
$var wire 32 J# PCBranchE [31:0] $end
$var wire 1 2 RegWriteE $end
$var wire 32 K# WriteDataE [31:0] $end
$var wire 1 , ZeroE $end
$var wire 1 a" clear $end
$var wire 1 A clk $end
$var wire 32 L# instrE [31:0] $end
$var wire 1 B reset $end
$var wire 5 M# WriteRegE [4:0] $end
$var reg 32 N# ALUOutM [31:0] $end
$var reg 1 = BranchM $end
$var reg 1 $ MemWriteM $end
$var reg 1 ^" MemtoRegM $end
$var reg 32 O# PCBranchM [31:0] $end
$var reg 1 N" RegWriteM $end
$var reg 32 P# WriteDataM [31:0] $end
$var reg 5 Q# WriteRegM [4:0] $end
$var reg 1 + ZeroM $end
$var reg 32 R# instrM [31:0] $end
$upscope $end
$scope module pipeF_D $end
$var wire 1 S# EN $end
$var wire 32 T# PcPlus4F [31:0] $end
$var wire 1 c" clear $end
$var wire 1 A clk $end
$var wire 32 U# instr [31:0] $end
$var wire 1 B reset $end
$var reg 32 V# PcPlus4D [31:0] $end
$var reg 32 W# instrD [31:0] $end
$upscope $end
$scope module pipeM_W $end
$var wire 32 X# ALUOutM [31:0] $end
$var wire 1 ^" MemtoRegM $end
$var wire 32 Y# ReadDataM [31:0] $end
$var wire 1 N" RegWriteM $end
$var wire 5 Z# WriteRegM [4:0] $end
$var wire 1 [# clear $end
$var wire 1 A clk $end
$var wire 32 \# instrM [31:0] $end
$var wire 1 B reset $end
$var reg 32 ]# ALUOutW [31:0] $end
$var reg 1 ]" MemtoRegW $end
$var reg 32 ^# ReadDataW [31:0] $end
$var reg 1 M" RegWriteW $end
$var reg 5 _# WriteRegW [4:0] $end
$var reg 32 `# instrW [31:0] $end
$upscope $end
$scope module pipeW_F $end
$var wire 1 a# EN $end
$var wire 32 b# PC [31:0] $end
$var wire 1 A clk $end
$var wire 1 B reset $end
$var reg 32 c# PCF [31:0] $end
$upscope $end
$scope module regdst_mux $end
$var wire 5 d# d0 [4:0] $end
$var wire 5 e# d1 [4:0] $end
$var wire 1 O" s $end
$var wire 5 f# y [4:0] $end
$var parameter 32 g# WIDTH $end
$upscope $end
$scope module result_mux $end
$var wire 32 h# d0 [31:0] $end
$var wire 32 i# d1 [31:0] $end
$var wire 1 ]" s $end
$var wire 32 j# y [31:0] $end
$var parameter 32 k# WIDTH $end
$upscope $end
$scope module rf $end
$var wire 1 A clk $end
$var wire 5 l# ra1 [4:0] $end
$var wire 5 m# ra2 [4:0] $end
$var wire 5 n# wa3 [4:0] $end
$var wire 32 o# wd3 [31:0] $end
$var wire 1 M" we3 $end
$var wire 32 p# rd2 [31:0] $end
$var wire 32 q# rd1 [31:0] $end
$upscope $end
$scope module se $end
$var wire 16 r# a [15:0] $end
$var wire 32 s# y [31:0] $end
$upscope $end
$scope module shifter $end
$var wire 32 t# a [31:0] $end
$var wire 32 u# y [31:0] $end
$upscope $end
$upscope $end
$upscope $end
$upscope $end
$scope begin $ivl_for_loop0 $end
$var integer 32 v# i [31:0] $end
$upscope $end
$upscope $end
$enddefinitions $end
$comment Show the parameter values. $end
$dumpall
b100000 k#
b101 g#
b100000 6#
b100000 2#
b100000 %#
b100000 !#
b100000 x"
$end
#0
$dumpvars
b0 v#
b0 u#
b0 t#
b0 s#
b0 r#
b0 q#
b0 p#
b0 o#
b0 n#
b0 m#
b0 l#
b0 j#
b0 i#
b0 h#
b0 f#
b0 e#
b0 d#
b0 c#
b100 b#
1a#
b0 `#
b0 _#
b0 ^#
b0 ]#
b0 \#
0[#
b0 Z#
bx Y#
b0 X#
b0 W#
b0 V#
b100000000000100000000000000101 U#
b100 T#
1S#
b0 R#
b0 Q#
b0 P#
b0 O#
b0 N#
b0 M#
b0 L#
b0 K#
b0 J#
b0 I#
b0 H#
b0 G#
b0 F#
b0 E#
b0 D#
b0 C#
b0 B#
b0 A#
b0 @#
b0 ?#
b0 >#
b0 =#
b0 <#
b0 ;#
b0 :#
b0 9#
b0 8#
bx 7#
b100 5#
b0 4#
b100 3#
b0 1#
b100 0#
b100 /#
b0 .#
b0 -#
b0 ,#
b0 +#
b0 *#
b0 )#
b0 (#
b0 '#
0&#
b0 $#
b0 ##
b0 "#
b0 ~"
b0 }"
b0 |"
b0 {"
b0 z"
b0 y"
b0 w"
b0 v"
b0 u"
b0 t"
b0 s"
b0 r"
b0 q"
b0 p"
b0 o"
b0 n"
b0 m"
b0 l"
b0 k"
b0 j"
b100 i"
b100 h"
b0 g"
b0 f"
b0 e"
b0 d"
0c"
0b"
0a"
b0 `"
b0 _"
0^"
0]"
b0 \"
b0 ["
b0 Z"
b100 Y"
b0 X"
b0 W"
b100 V"
b0 U"
b0 T"
b0 S"
b0 R"
b0 Q"
b0 P"
0O"
0N"
0M"
b0 L"
b0 K"
b0 J"
b0 I"
b0 H"
b0 G"
b0 F"
0E"
0D"
b0 C"
b0 B"
b0 A"
b0 @"
b0 ?"
b0 >"
b0 ="
b0 <"
b0 ;"
b100 :"
b0 9"
b0 8"
b0 7"
b0 6"
b0 5"
b100000000000100000000000000101 4"
b0 3"
bx 2"
01"
bx 0"
b110000100 /"
b10 ."
b0 -"
bx ,"
b10 +"
b0 *"
bx )"
b10 ("
b0 '"
b0 &"
bx %"
bx $"
b0 #"
b0 ""
0!"
0~
b0 }
b0 |
0{
0z
0y
b0 x
b0 w
b0 v
b0 u
b0 t
b0 s
1r
1q
b0 p
b0 o
b0 n
b0 m
b0 l
b0 k
b0 j
b0 i
b0 h
b0 g
b0 f
b100 e
b100000000000100000000000000101 d
b100000000000100000000000000101 c
bx b
b100000000000100000000000000101 a
b0 `
b0 _
b0 ^
bx ]
b0 \
b0 [
b0 Z
b0 Y
b0 X
b0 W
b0 V
b0 U
b0 T
b0 S
b0 R
b0 Q
b0 P
b0 O
b0 N
b0 M
b0 L
b100000000000100000000000000101 K
b0 J
b100000000000100000000000000101 I
b0 H
b0 G
b100 F
bx E
bx D
b0 C
1B
0A
b0 @
0?
0>
0=
b0 <
b0 ;
0:
09
b0 8
b0 7
b0 6
b0 5
b0 4
b0 3
02
b0 1
b0 0
b0 /
b0 .
b0 -
1,
0+
b0 *
b0 )
b0 (
b100000000000100000000000000101 '
b0 &
b0 %
0$
b0 #
b100 "
b0 !
$end
#1000
0B
#11000
b10 $"
b10 )"
b10 ,"
b10 0"
b10 7#
0r
1!"
b0 ("
b0 +"
b0 ."
x,
bx 4
bx U
bx t
bx S"
bx =#
bx p#
b101000000 /"
b1000 "
b1000 F
b1000 e
b1000 Y"
b1000 5#
b1000 b#
b100000000000110000000000001100 I
b100000000000110000000000001100 d
b100000000000110000000000001100 '
b100000000000110000000000001100 K
b100000000000110000000000001100 a
b100000000000110000000000001100 c
b100000000000110000000000001100 4"
b100000000000110000000000001100 U#
bx @
bx \
bx #"
bx f"
bx q"
bx I#
b10000000000000010100 9"
b10000000000000010100 4#
b101 I"
b101 <#
b101 s#
b101 3"
b101 r#
b10 7"
b10 (#
b10 :#
b10 m#
b101 &"
b101 *"
b1000 '"
b1000 -"
b1000 :"
b1000 0#
b1000 3#
b1 `
bx P"
bx ^#
bx i#
1+
1O"
bx g"
bx o"
bx @#
12
b100 X"
b100 ?#
b100 V#
b100000000000100000000000000101 )
b100000000000100000000000000101 M
b100000000000100000000000000101 j
b100000000000100000000000000101 >"
b100000000000100000000000000101 ;#
b100000000000100000000000000101 W#
b1000 V"
b1000 i"
b1000 /#
b1000 T#
b100 #
b100 G
b100 f
b100 Z"
b100 j"
b100 c#
b1 v#
1A
#21000
b10 v#
0A
#31000
b1100 "
b1100 F
b1100 e
b1100 Y"
b1100 5#
b1100 b#
b100000011001111111111111110111 I
b100000011001111111111111110111 d
b100000011001111111111111110111 '
b100000011001111111111111110111 K
b100000011001111111111111110111 a
b100000011001111111111111110111 c
b100000011001111111111111110111 4"
b100000011001111111111111110111 U#
bx .
bx P
bx m
bx C"
bx z"
bx "#
bx K#
0,
b1100 :"
b1100 0#
b1100 3#
b10 `
b11000000000000110000 9"
b11000000000000110000 4#
b1100 I"
b1100 <#
b1100 s#
b1100 3"
b1100 r#
b11 7"
b11 (#
b11 :#
b11 m#
b1100 &"
b1100 *"
b10100 8"
b10100 m"
b10100 u#
b10 -
b10 O
b10 k
b10 A"
b10 M#
b10 f#
b101 /
b101 Q
b101 n
b101 F"
b101 n"
b101 ##
b101 @
b101 \
b101 #"
b101 f"
b101 q"
b101 I#
b1100 V"
b1100 i"
b1100 /#
b1100 T#
b1000 #
b1000 G
b1000 f
b1000 Z"
b1000 j"
b1000 c#
b1000 X"
b1000 ?#
b1000 V#
b100000000000110000000000001100 )
b100000000000110000000000001100 M
b100000000000110000000000001100 j
b100000000000110000000000001100 >"
b100000000000110000000000001100 ;#
b100000000000110000000000001100 W#
b11000 8
b11000 Y
b11000 x
b11000 \"
b11000 k"
b11000 J#
b100 W"
b100 l"
b100 A#
b101 1
b101 S
b101 p
b101 H"
b101 $#
b101 G#
b101 t#
b10 J"
b10 )#
b10 F#
b10 d#
bx 3
bx T
bx s
bx R"
bx ~"
bx C#
0O"
1?
b10 g"
b10 o"
b10 @#
b100000000000100000000000000101 (
b100000000000100000000000000101 L
b100000000000100000000000000101 i
b100000000000100000000000000101 ="
b100000000000100000000000000101 H#
b100000000000100000000000000101 L#
bx *
bx N
bx _
bx ""
bx e"
bx u"
bx |"
bx N#
bx X#
x+
1N"
b11 v#
1A
#41000
b100 v#
0A
#51000
b1100 @
b1100 \
b1100 #"
b1100 f"
b1100 q"
b1100 I#
bx 6
bx W
bx v
bx U"
bx >#
bx q#
b10000 "
b10000 F
b10000 e
b10000 Y"
b10000 5#
b10000 b#
b111000100010000000100101 I
b111000100010000000100101 d
b111000100010000000100101 '
b111000100010000000100101 K
b111000100010000000100101 a
b111000100010000000100101 c
b111000100010000000100101 4"
b111000100010000000100101 U#
bx L"
bx v"
bx }"
bx j#
bx o#
b110000 8"
b110000 m"
b110000 u#
b1100 /
b1100 Q
b1100 n
b1100 F"
b1100 n"
b1100 ##
b11 -
b11 O
b11 k
b11 A"
b11 M#
b11 f#
b1100111111111111111011100 9"
b1100111111111111111011100 4#
b11111111111111111111111111110111 I"
b11111111111111111111111111110111 <#
b11111111111111111111111111110111 s#
b1111111111110111 3"
b1111111111110111 r#
b11111 5"
b11111 8#
b111 7"
b111 (#
b111 :#
b111 m#
b11 6"
b11 '#
b11 9#
b11 l#
b110111 &"
b110111 *"
b10000 :"
b10000 0#
b10000 3#
b11 `
bx d"
bx ]#
bx h#
1M"
b11000 7
b11000 X
b11000 w
b11000 ["
b11000 1#
b11000 O#
b10 @"
b10 ,#
b10 Q#
b10 Z#
bx !
bx C
bx ^
bx l
bx B"
bx P#
b101 *
b101 N
b101 _
b101 ""
b101 e"
b101 u"
b101 |"
b101 N#
b101 X#
0+
b100000000000100000000000000101 &
b100000000000100000000000000101 J
b100000000000100000000000000101 h
b100000000000100000000000000101 <"
b100000000000100000000000000101 R#
b100000000000100000000000000101 \#
b111000 8
b111000 Y
b111000 x
b111000 \"
b111000 k"
b111000 J#
b1000 W"
b1000 l"
b1000 A#
b1100 1
b1100 S
b1100 p
b1100 H"
b1100 $#
b1100 G#
b1100 t#
b11 J"
b11 )#
b11 F#
b11 d#
b100000000000110000000000001100 (
b100000000000110000000000001100 L
b100000000000110000000000001100 i
b100000000000110000000000001100 ="
b100000000000110000000000001100 H#
b100000000000110000000000001100 L#
b1100 X"
b1100 ?#
b1100 V#
b100000011001111111111111110111 )
b100000011001111111111111110111 M
b100000011001111111111111110111 j
b100000011001111111111111110111 >"
b100000011001111111111111110111 ;#
b100000011001111111111111110111 W#
b10000 V"
b10000 i"
b10000 /#
b10000 T#
b1100 #
b1100 G
b1100 f
b1100 Z"
b1100 j"
b1100 c#
b101 v#
1A
#61000
b110 v#
0A
#71000
b1 $"
b1 )"
b1 ,"
b1 0"
b1 7#
1r
0!"
b10 ("
b10 +"
b10 ."
b10100 "
b10100 F
b10100 e
b10100 Y"
b10100 5#
b10100 b#
b11001000010100000100100 I
b11001000010100000100100 d
b11001000010100000100100 '
b11001000010100000100100 K
b11001000010100000100100 a
b11001000010100000100100 c
b11001000010100000100100 4"
b11001000010100000100100 U#
b110000100 /"
b11 @
b11 \
b11 #"
b11 f"
b11 q"
b11 I#
b1100 0
b1100 R
b1100 o
b1100 G"
b1100 p"
b1100 s"
b10100 :"
b10100 0#
b10100 3#
b100 `
b11100010001000000010010100 9"
b11100010001000000010010100 4#
b10000000100101 I"
b10000000100101 <#
b10000000100101 s#
b10000000100101 3"
b10000000100101 r#
b100 5"
b100 8#
b10 7"
b10 (#
b10 :#
b10 m#
b111 6"
b111 '#
b111 9#
b111 l#
b100101 &"
b100101 *"
b0 '"
b0 -"
b11111111111111111111111111011100 8"
b11111111111111111111111111011100 m"
b11111111111111111111111111011100 u#
b11111111111111111111111111110111 /
b11111111111111111111111111110111 Q
b11111111111111111111111111110111 n
b11111111111111111111111111110111 F"
b11111111111111111111111111110111 n"
b11111111111111111111111111110111 ##
b111 -
b111 O
b111 k
b111 A"
b111 M#
b111 f#
b10 <
b10 [
b10 }
b10 `"
b10 t"
b10 -#
b101 L"
b101 v"
b101 }"
b101 j#
b101 o#
b10100 V"
b10100 i"
b10100 /#
b10100 T#
b10000 #
b10000 G
b10000 f
b10000 Z"
b10000 j"
b10000 c#
b10000 X"
b10000 ?#
b10000 V#
b111000100010000000100101 )
b111000100010000000100101 M
b111000100010000000100101 j
b111000100010000000100101 >"
b111000100010000000100101 ;#
b111000100010000000100101 W#
b11111111111111111111111111101000 8
b11111111111111111111111111101000 Y
b11111111111111111111111111101000 x
b11111111111111111111111111101000 \"
b11111111111111111111111111101000 k"
b11111111111111111111111111101000 J#
b1100 W"
b1100 l"
b1100 A#
b11111111111111111111111111110111 1
b11111111111111111111111111110111 S
b11111111111111111111111111110111 p
b11111111111111111111111111110111 H"
b11111111111111111111111111110111 $#
b11111111111111111111111111110111 G#
b11111111111111111111111111110111 t#
b11111 Q"
b11111 D#
b11111 e#
b111 J"
b111 )#
b111 F#
b111 d#
b11 K"
b11 *#
b11 E#
bx 5
bx V
bx u
bx T"
bx w"
bx B#
b100000011001111111111111110111 (
b100000011001111111111111110111 L
b100000011001111111111111110111 i
b100000011001111111111111110111 ="
b100000011001111111111111110111 H#
b100000011001111111111111110111 L#
b111000 7
b111000 X
b111000 w
b111000 ["
b111000 1#
b111000 O#
b11 @"
b11 ,#
b11 Q#
b11 Z#
b1100 *
b1100 N
b1100 _
b1100 ""
b1100 e"
b1100 u"
b1100 |"
b1100 N#
b1100 X#
b100000000000110000000000001100 &
b100000000000110000000000001100 J
b100000000000110000000000001100 h
b100000000000110000000000001100 <"
b100000000000110000000000001100 R#
b100000000000110000000000001100 \#
b10 ?"
b10 +#
b10 _#
b10 n#
b101 d"
b101 ]#
b101 h#
b100000000000100000000000000101 %
b100000000000100000000000000101 H
b100000000000100000000000000101 g
b100000000000100000000000000101 ;"
b100000000000100000000000000101 `#
b111 v#
1A
#81000
b101 4
b101 U
b101 t
b101 S"
b101 =#
b101 p#
b1000 v#
0A
